{"properties": [
  {
    "name": "Spring.application.name",
    "type": "java.lang.String",
    "description": "A description for 'Spring.application.name'"
  },
  {
    "name": "Spring.application.name",
    "type": "java.lang.String",
    "description": "A description for 'Spring.application.name'"
  }
]}